05 Eda Grp
…
# Make file name human- and machine-readable, so that main results can be read from file name
calibration_ips_file <- 
  file.path(performance_descriptives_group_dir,
            sprintf("calibration_ips_task-%s.csv",
                    params$task
                    )
            )

readr::write_csv(calibration_ips,
                 path = calibration_ips_file
            ) %>%
  print(sprintf("%s", calibration_ips_file))

## # A tibble: 196 x 3
##    subject_ix   t_l    ip
##         <int> <int> <dbl>
##  1          9     2 30.3 
##  2          9     4 24.8 
##  3          9     8 29.6 
##  4          9    16 30.3 
##  5          9    32 19.4 
##  6          9    64 18.7 
##  7          9   128  7.14
##  8         11     2 41.1 
##  9         11     4 40.5 
## 10         11     8 41.1 
## #  with 186 more rows
…
# Make file name human- and machine-readable, so that main results can be read from file name
ll_choice_pctgs_grp_file <-
  file.path(performance_descriptives_group_dir,
            sprintf("ll_choice_percentages_task-%s.csv",
                    params$task
                    )
            )
  
readr::write_csv(ll_choice_pctgs_for_plotting,
                 path = ll_choice_pctgs_grp_file
            ) %>%
print(sprintf("%s", ll_choice_pctgs_grp_file))

## # A tibble: 28 x 5
##    participant_id defer speedup    diff direction   
##             <int> <dbl>   <dbl>   <dbl> <chr>       
##  1              9 0.892   0.802 -0.0891 incompatible
##  2             11 0.905   0.743 -0.162  incompatible
##  3             13 0.468   0.553  0.0851 compatible  
##  4             15 0.75    0.952  0.202  compatible  
##  5             19 0.418   0.921  0.503  compatible  
##  6             21 0.481   0.583  0.102  compatible  
##  7             24 0.762   0.880  0.117  compatible  
##  8             26 0.393   0.537  0.144  compatible  
##  9             32 0.688   0.790  0.103  compatible  
## 10             36 0.675   0.810  0.135  compatible  
## #  with 18 more rows
…
# Make file name human- and machine-readable, so that main results can be read from file name
rt_percentiles_file <-
  file.path(performance_descriptives_group_dir,
            sprintf("rt_percentiles_task-%s.csv",
                    params$task
                    )
            )
  
readr::write_csv(rt_dist_for_plotting_grpd,
                 path = rt_percentiles_file
            ) %>%
print(sprintf("%s", rt_percentiles_file))

## # A tibble: 140 x 5
## # Groups:   participant_id [28]
##    participant_id percentile neutral defer speedup
##    <chr>          <chr>        <dbl> <dbl>   <dbl>
##  1 9              10%           1.97  2.13    2.36
##  2 9              30%           2.42  2.89    3.50
##  3 9              50%           2.93  3.71    4.17
##  4 9              70%           3.56  4.68    4.75
##  5 9              90%           4.51  6.31    6.29
##  6 11             10%           1.66  1.68    1.78
##  7 11             30%           2.02  1.91    2.09
##  8 11             50%           2.26  2.09    2.46
##  9 11             70%           2.40  2.43    2.97
## 10 11             90%           2.96  3.13    3.75
## #  with 130 more rows
…
