05 Eda Grp
…
# Make file name human- and machine-readable, so that main results can be read from file name
calibration_ips_file <- 
  file.path(performance_descriptives_group_dir,
            sprintf("calibration_ips_task-%s.csv",
                    params$task
                    )
            )

readr::write_csv(calibration_ips,
                 path = calibration_ips_file
            ) %>%
  print(sprintf("%s", calibration_ips_file))

## # A tibble: 217 x 3
##    subject_ix   t_l    ip
##         <int> <int> <dbl>
##  1          1     2  38.4
##  2          1     4  39.8
##  3          1     8  38.4
##  4          1    16  35.0
##  5          1    32  35.0
##  6          1    64  29.6
##  7          1   128  21.4
##  8          6     2  41.8
##  9          6     4  41.1
## 10          6     8  41.8
## #  with 207 more rows
…
# Make file name human- and machine-readable, so that main results can be read from file name
ll_choice_pctgs_grp_file <-
  file.path(performance_descriptives_group_dir,
            sprintf("ll_choice_percentages_task-%s.csv",
                    params$task
                    )
            )
  
readr::write_csv(ll_choice_pctgs_for_plotting,
                 path = ll_choice_pctgs_grp_file
            ) %>%
print(sprintf("%s", ll_choice_pctgs_grp_file))

## # A tibble: 31 x 5
##    participant_id delay  date    diff direction   
##             <int> <dbl> <dbl>   <dbl> <chr>       
##  1              1 0.817 0.952  0.135  compatible  
##  2              6 0.952 0.810 -0.142  incompatible
##  3             14 0.113 0.268  0.155  compatible  
##  4             17 0.663 0.798  0.135  compatible  
##  5             20 0.590 0.663  0.0723 compatible  
##  6             23 0.301 0.458  0.157  compatible  
##  7             25 0.462 0.683  0.221  compatible  
##  8             27 0.852 0.786 -0.0661 incompatible
##  9             33 0.696 0.890  0.194  compatible  
## 10             35 0.386 0.286 -0.0998 incompatible
## #  with 21 more rows
…
# Make file name human- and machine-readable, so that main results can be read from file name
rt_percentiles_file <-
  file.path(performance_descriptives_group_dir,
            sprintf("rt_percentiles_task-%s.csv",
                    params$task
                    )
            )
  
readr::write_csv(rt_dist_for_plotting_grpd,
                 path = rt_percentiles_file
            ) %>%
print(sprintf("%s", rt_percentiles_file))

## # A tibble: 155 x 4
## # Groups:   participant_id [31]
##    participant_id percentile delay  date
##    <chr>          <chr>      <dbl> <dbl>
##  1 1              10%         2.14  2.73
##  2 1              30%         3.39  4.50
##  3 1              50%         4.38  5.32
##  4 1              70%         5.66  6.27
##  5 1              90%         7.25  7.44
##  6 6              10%         2.21  2.00
##  7 6              30%         3.30  2.58
##  8 6              50%         4.73  3.23
##  9 6              70%         5.74  4.15
## 10 6              90%         6.65  5.30
## #  with 145 more rows
…
