09 Sanity Check Effect Framing On Model Predicted Auc
…
4.2 Preprocess area under the curve data

Area under the curve (AUC) data of best-fitting model overall

preproc_data_bic_aggregate <- 
  preprocess_data(auc_data = auc_bic_aggregate)

print(preproc_data_bic_aggregate$auc_data_wide)

## # A tibble: 28 x 8
##    participant_id neutral defer speedup framing_effect       z is_outlier
##             <int>   <dbl> <dbl>   <dbl>          <dbl>   <dbl> <lgl>     
##  1              9   0.853 0.693   0.622 -0.0709        -0.888  FALSE     
##  2             11   0.960 0.977   0.949 -0.0280        -0.647  FALSE     
##  3             13   0.737 0.750   0.830  0.0801        -0.0391 FALSE     
##  4             15   0.979 0.859   1.000  0.140          0.299  FALSE     
##  5             19   0.942 0.550   0.929  0.379          1.64   FALSE     
##  6             21   0.381 0.381   0.381 -0.00000000276 -0.489  FALSE     
##  7             24   0.915 0.894   0.906  0.0118        -0.423  FALSE     
##  8             26   0.947 0.890   0.933  0.0433        -0.246  FALSE     
##  9             32   0.951 0.871   0.890  0.0190        -0.383  FALSE     
## 10             36   0.672 0.553   0.718  0.165          0.441  FALSE     
## #  with 18 more rows, and 1 more variable: is_negative <lgl>

preproc_data_bic_count <- 
  preprocess_data(auc_data = auc_bic_count)

print(preproc_data_bic_count$auc_data_wide)

## # A tibble: 28 x 8
##    participant_id neutral defer speedup framing_effect       z is_outlier
##             <int>   <dbl> <dbl>   <dbl>          <dbl>   <dbl> <lgl>     
##  1              9   0.853 0.693   0.622        -0.0709 -1.33   FALSE     
##  2             11   0.960 0.977   0.949        -0.0280 -0.740  FALSE     
##  3             13   0.696 0.683   0.726         0.0429  0.238  FALSE     
##  4             15   0.979 0.859   1.000         0.140   1.58   FALSE     
##  5             19   0.774 0.609   0.785         0.176   2.07   FALSE     
##  6             21   0.253 0.245   0.279         0.0350  0.129  FALSE     
##  7             24   0.907 0.912   0.901        -0.0107 -0.501  FALSE     
##  8             26   0.936 0.896   0.918         0.0221 -0.0495 FALSE     
##  9             32   0.951 0.871   0.890         0.0190 -0.0921 FALSE     
## 10             36   0.597 0.589   0.609         0.0207 -0.0683 FALSE     
## #  with 18 more rows, and 1 more variable: is_negative <lgl>

4.3 Compute subjective value from indiffernce points

The are Here, we compute those

successive delay-indifference point pairings from the model

ip_bic_aggregate <- 
  compute_sv(tibb = ip_bic_aggregate)

print(ip_bic_aggregate)

## # A tibble: 10,836 x 9
##    participant_id model parameterization bound_settings algorithm frame
##             <int> <fct> <fct>            <fct>          <fct>     <ord>
##  1              9 DFT_ time_scaling     wide           DEoptimR  neut
##  2              9 DFT_ time_scaling     wide           DEoptimR  neut
##  3              9 DFT_ time_scaling     wide           DEoptimR  neut
##  4              9 DFT_ time_scaling     wide           DEoptimR  neut
##  5              9 DFT_ time_scaling     wide           DEoptimR  neut
##  6              9 DFT_ time_scaling     wide           DEoptimR  neut
##  7              9 DFT_ time_scaling     wide           DEoptimR  neut
##  8              9 DFT_ time_scaling     wide           DEoptimR  neut
##  9              9 DFT_ time_scaling     wide           DEoptimR  neut
## 10              9 DFT_ time_scaling     wide           DEoptimR  neut
## #  with 10,826 more rows, and 3 more variables: ip <dbl>, delay <int>,
## #   sv <dbl>

ip_bic_count <- 
  compute_sv(tibb = ip_bic_count)

print(ip_bic_count)

## # A tibble: 10,836 x 9
##    participant_id model parameterization bound_settings algorithm frame
##             <int> <fct> <fct>            <fct>          <fct>     <ord>
##  1              9 DFT_ time_scaling     wide           DEoptimR  neut
##  2              9 DFT_ time_scaling     wide           DEoptimR  neut
##  3              9 DFT_ time_scaling     wide           DEoptimR  neut
##  4              9 DFT_ time_scaling     wide           DEoptimR  neut
##  5              9 DFT_ time_scaling     wide           DEoptimR  neut
##  6              9 DFT_ time_scaling     wide           DEoptimR  neut
##  7              9 DFT_ time_scaling     wide           DEoptimR  neut
##  8              9 DFT_ time_scaling     wide           DEoptimR  neut
##  9              9 DFT_ time_scaling     wide           DEoptimR  neut
## 10              9 DFT_ time_scaling     wide           DEoptimR  neut
## #  with 10,826 more rows, and 3 more variables: ip <dbl>, delay <int>,
## #   sv <dbl>
…
