09 Sanity Check Effect Framing On Model Predicted Auc
…
4.2 Preprocess area under the curve data

Area under the curve (AUC) data of best-fitting model overall

preproc_data_bic_aggregate <- 
  preprocess_data(auc_data = auc_bic_aggregate)

print(preproc_data_bic_aggregate$auc_data_wide)

## # A tibble: 31 x 7
##    participant_id   delay   date framing_effect       z is_outlier
##             <int>   <dbl>  <dbl>          <dbl>   <dbl> <lgl>     
##  1              1 0.883   0.893        1.04e- 2 -0.370  FALSE     
##  2              6 0.946   0.952        6.02e- 3 -0.413  FALSE     
##  3             14 0.00391 0.0613       5.74e- 2  0.101  FALSE     
##  4             17 0.871   0.908        3.71e- 2 -0.102  FALSE     
##  5             20 0.377   0.381        4.65e- 3 -0.427  FALSE     
##  6             23 0.750   0.750        1.12e-10 -0.473  FALSE     
##  7             25 0.903   0.958        5.47e- 2  0.0740 FALSE     
##  8             27 0.919   0.822       -9.70e- 2 -1.44   FALSE     
##  9             33 0.611   0.699        8.75e- 2  0.403  FALSE     
## 10             35 0.571   0.537       -3.36e- 2 -0.810  FALSE     
## #  with 21 more rows, and 1 more variable: is_negative <lgl>

preproc_data_bic_count <- 
  preprocess_data(auc_data = auc_bic_count)

print(preproc_data_bic_count$auc_data_wide)

## # A tibble: 31 x 7
##    participant_id   delay   date framing_effect        z is_outlier
##             <int>   <dbl>  <dbl>          <dbl>    <dbl> <lgl>     
##  1              1 0.867   0.902        3.42e- 2  3.82e-4 FALSE     
##  2              6 0.946   0.952        6.02e- 3 -3.84e-1 FALSE     
##  3             14 0.00391 0.0566       5.27e- 2  2.52e-1 FALSE     
##  4             17 0.869   0.913        4.38e- 2  1.31e-1 FALSE     
##  5             20 0.377   0.381        4.65e- 3 -4.03e-1 FALSE     
##  6             23 0.750   0.750        1.12e-10 -4.66e-1 FALSE     
##  7             25 0.906   0.938        3.27e- 2 -1.98e-2 FALSE     
##  8             27 0.847   0.809       -3.81e- 2 -9.86e-1 FALSE     
##  9             33 0.611   0.699        8.75e- 2  7.26e-1 FALSE     
## 10             35 0.703   0.649       -5.44e- 2 -1.21e+0 FALSE     
## #  with 21 more rows, and 1 more variable: is_negative <lgl>

4.3 Compute subjective value from indiffernce points

The are Here, we compute those

successive delay-indifference point pairings from the model

ip_bic_aggregate <- 
  compute_sv(tibb = ip_bic_aggregate)

print(ip_bic_aggregate)

## # A tibble: 7,998 x 9
##    participant_id model parameterization bound_settings algorithm frame
##             <int> <fct> <fct>            <fct>          <fct>     <ord>
##  1              1 DFT_ time_scaling     wide           DEoptimR  delay
##  2              1 DFT_ time_scaling     wide           DEoptimR  delay
##  3              1 DFT_ time_scaling     wide           DEoptimR  delay
##  4              1 DFT_ time_scaling     wide           DEoptimR  delay
##  5              1 DFT_ time_scaling     wide           DEoptimR  delay
##  6              1 DFT_ time_scaling     wide           DEoptimR  delay
##  7              1 DFT_ time_scaling     wide           DEoptimR  delay
##  8              1 DFT_ time_scaling     wide           DEoptimR  delay
##  9              1 DFT_ time_scaling     wide           DEoptimR  delay
## 10              1 DFT_ time_scaling     wide           DEoptimR  delay
## #  with 7,988 more rows, and 3 more variables: ip <dbl>, delay <int>,
## #   sv <dbl>

ip_bic_count <- 
  compute_sv(tibb = ip_bic_count)

print(ip_bic_count)

## # A tibble: 7,998 x 9
##    participant_id model parameterization bound_settings algorithm frame
##             <int> <fct> <fct>            <fct>          <fct>     <ord>
##  1              1 DFT_ value_scaling_t0 wide           DEoptimR  delay
##  2              1 DFT_ value_scaling_t0 wide           DEoptimR  delay
##  3              1 DFT_ value_scaling_t0 wide           DEoptimR  delay
##  4              1 DFT_ value_scaling_t0 wide           DEoptimR  delay
##  5              1 DFT_ value_scaling_t0 wide           DEoptimR  delay
##  6              1 DFT_ value_scaling_t0 wide           DEoptimR  delay
##  7              1 DFT_ value_scaling_t0 wide           DEoptimR  delay
##  8              1 DFT_ value_scaling_t0 wide           DEoptimR  delay
##  9              1 DFT_ value_scaling_t0 wide           DEoptimR  delay
## 10              1 DFT_ value_scaling_t0 wide           DEoptimR  delay
## #  with 7,988 more rows, and 3 more variables: ip <dbl>, delay <int>,
## #   sv <dbl>
…
