08 Analysis Of Model Parameters
…
4 Preprocess data

4.1 Parameter values of the best-fitting model overall

best_fit_params_overall <- 
  data_best_fit_params %>%
  dplyr::filter(best_model_type == "overall") %>%
  # Reorder to facilitate inspection
  dplyr::select(best_model_type, participant_id, model_name, parameterization, params) %>%
  dplyr::mutate(params = purrr::map(params, gather)) %>%
  tidyr::unnest() %>%
  print()

## # A tibble: 252 x 6
##    best_model_type participant_id model_name parameterization key     value
##    <fct>                    <int> <fct>      <fct>            <chr>   <dbl>
##  1 overall                      9 DFT_CRT    time_scaling     alpha   1.15 
##  2 overall                      9 DFT_CRT    time_scaling     mu      1    
##  3 overall                      9 DFT_CRT    time_scaling     beta    0.686
##  4 overall                      9 DFT_CRT    time_scaling     kappa1  1    
##  5 overall                      9 DFT_CRT    time_scaling     kappa2  2.05 
##  6 overall                      9 DFT_CRT    time_scaling     kappa3  2.50 
##  7 overall                      9 DFT_CRT    time_scaling     w       0.561
##  8 overall                      9 DFT_CRT    time_scaling     theta_ 3.93 
##  9 overall                      9 DFT_CRT    time_scaling     t0      1.22 
## 10 overall                     11 DFT_CRT    time_scaling     alpha   0.746
## #  with 242 more rows
…
