08 Analysis Of Model Parameters
…
4 Preprocess data

4.1 Parameter values of the best-fitting model overall

best_fit_params_overall <- 
  data_best_fit_params %>%
  dplyr::filter(best_model_type == "overall") %>%
  # Reorder to facilitate inspection
  dplyr::select(best_model_type, participant_id, model_name, parameterization, params) %>%
  dplyr::mutate(params = purrr::map(params, gather)) %>%
  tidyr::unnest() %>%
  print()

## # A tibble: 248 x 6
##    best_model_type participant_id model_name parameterization key     value
##    <fct>                    <int> <fct>      <fct>            <chr>   <dbl>
##  1 overall                      1 DFT_CRT    time_scaling     alpha   0.655
##  2 overall                      1 DFT_CRT    time_scaling     mu      1    
##  3 overall                      1 DFT_CRT    time_scaling     beta    0.414
##  4 overall                      1 DFT_CRT    time_scaling     kappa1  1    
##  5 overall                      1 DFT_CRT    time_scaling     kappa2  0.910
##  6 overall                      1 DFT_CRT    time_scaling     w       0.850
##  7 overall                      1 DFT_CRT    time_scaling     theta_ 4.99 
##  8 overall                      1 DFT_CRT    time_scaling     t0      1.07 
##  9 overall                      6 DFT_CRT    time_scaling     alpha   0.877
## 10 overall                      6 DFT_CRT    time_scaling     mu      1    
## #  with 238 more rows
…
